<?xml version="1.0" standalone="no"?>
<!DOCTYPE svg PUBLIC "-//W3C//DTD SVG 20010904//EN"
 "http://www.w3.org/TR/2001/REC-SVG-20010904/DTD/svg10.dtd">
<svg version="1.0" xmlns="http://www.w3.org/2000/svg"
 width="512.000000pt" height="512.000000pt" viewBox="0 0 512.000000 512.000000"
 preserveAspectRatio="xMidYMid meet">
<metadata>
Created by potrace 1.11, written by Peter Selinger 2001-2013
</metadata>
<g transform="translate(0.000000,512.000000) scale(0.100000,-0.100000)"
fill="#000000" stroke="none">
<path d="M2810 4390 c0 -5 18 -37 40 -71 59 -92 82 -161 88 -263 13 -250 -104
-431 -503 -776 -203 -175 -337 -313 -425 -434 -36 -49 -77 -103 -93 -120 l-27
-31 -19 22 c-10 12 -22 39 -26 60 -19 104 -119 224 -236 284 -81 41 -193 52
-264 24 -68 -26 -59 -51 28 -75 53 -14 124 -61 157 -103 59 -75 77 -243 45
-403 -15 -72 -28 -119 -109 -394 -86 -290 -100 -467 -52 -633 73 -249 248
-450 511 -589 187 -98 362 -141 575 -142 273 0 532 82 779 245 282 186 423
423 422 711 0 123 -15 195 -90 433 -66 208 -82 288 -83 410 -1 81 4 112 22
160 31 81 102 151 190 185 151 59 31 94 -150 43 -147 -41 -203 -91 -283 -253
-69 -139 -98 -168 -157 -155 -44 10 -65 47 -64 114 2 56 16 107 94 321 154
426 159 804 15 1095 -83 167 -269 345 -360 345 -14 0 -25 -4 -25 -10z m-205
-1767 c99 -122 130 -216 130 -400 l0 -131 -78 -154 c-88 -173 -101 -228 -70
-287 29 -55 66 -76 131 -75 122 1 244 114 226 209 -4 22 -2 35 4 35 19 0 61
-52 88 -107 35 -70 31 -170 -8 -255 -57 -122 -224 -244 -388 -283 -291 -68
-564 88 -634 361 -40 153 -4 310 102 444 19 25 113 122 207 215 153 151 176
179 210 247 39 80 42 116 19 211 -10 43 10 33 61 -30z"/>
</g>
</svg>
